simulation/qsim/SW2.msim.vcd
$comment
	File created using the following command:
		vcd file SW2.msim.vcd -direction
$end
$date
	Sun Mar 06 21:18:53 2022
$end
$version
	ModelSim Version 10.5b
$end
$timescale
	1ps
$end

$scope module SW2_vlg_vec_tst $end
$var reg 4 ! a [3:0] $end
$var reg 4 " b [3:0] $end
$var reg 1 # cin $end
$var wire 1 $ cout $end
$var wire 1 % s [3] $end
$var wire 1 & s [2] $end
$var wire 1 ' s [1] $end
$var wire 1 ( s [0] $end

$scope module i1 $end
$var wire 1 ) gnd $end
$var wire 1 * vcc $end
$var wire 1 + unknown $end
$var tri1 1 , devclrn $end
$var tri1 1 - devpor $end
$var tri1 1 . devoe $end
$var wire 1 / ~QUARTUS_CREATED_GND~I_combout $end
$var wire 1 0 cin~input_o $end
$var wire 1 1 a[0]~input_o $end
$var wire 1 2 b[0]~input_o $end
$var wire 1 3 u1|s~combout $end
$var wire 1 4 a[1]~input_o $end
$var wire 1 5 b[1]~input_o $end
$var wire 1 6 u2|s~combout $end
$var wire 1 7 u2|cout~combout $end
$var wire 1 8 a[2]~input_o $end
$var wire 1 9 b[2]~input_o $end
$var wire 1 : u3|s~combout $end
$var wire 1 ; b[3]~input_o $end
$var wire 1 < a[3]~input_o $end
$var wire 1 = u4|s~combout $end
$var wire 1 > u4|cout~combout $end
$upscope $end
$upscope $end
$enddefinitions $end
#0
$dumpvars
b0 !
b0 "
0#
0$
0(
0'
0&
0%
0)
1*
x+
1,
1-
1.
0/
00
01
02
03
04
05
06
07
08
09
0:
0;
0<
0=
0>
$end
#2500
b1 "
12
13
1(
#5000
b11 "
b10 "
02
15
16
03
0(
1'
#7500
b11 "
12
13
1(
#10000
b111 "
b101 "
b100 "
02
05
19
1:
06
03
0(
0'
1&
#12500
b101 "
12
13
1(
#15000
b111 "
b110 "
02
15
16
03
0(
1'
#17500
b111 "
12
13
1(
#20000
b1111 "
b1011 "
b1001 "
b1000 "
02
05
09
1;
1=
0:
06
03
0(
0'
0&
1%
#22500
b1001 "
12
13
1(
#25000
b1011 "
b1010 "
02
15
16
03
0(
1'
#27500
b1011 "
12
13
1(
#30000
b1111 "
b1101 "
b1100 "
02
05
19
1:
06
03
0(
0'
1&
#32500
b1101 "
12
13
1(
#35000
b1111 "
b1110 "
02
15
16
03
0(
1'
#37500
b1111 "
12
13
1(
#40000
b1 !
b111 "
b11 "
b1 "
b0 "
02
05
09
0;
11
06
0=
0:
0&
0%
0'
#42500
b1 "
12
16
03
0(
1'
#45000
b11 "
b10 "
02
15
13
1(
#47500
b11 "
12
17
06
03
0(
0'
1:
1&
#50000
b111 "
b101 "
b100 "
02
05
19
07
1=
0:
13
1(
0&
1%
0=
1:
1&
0%
#52500
b101 "
12
16
03
0(
1'
#55000
b111 "
b110 "
02
15
13
1(
#57500
b111 "
12
17
06
03
0(
0'
1=
0:
0&
1%
#60000
b1111 "
b1011 "
b1001 "
b1000 "
02
05
09
1;
07
1:
13
1(
1&
0:
0&
#62500
b1001 "
12
16
03
0(
1'
#65000
b1011 "
b1010 "
02
15
13
1(
#67500
b1011 "
12
17
06
03
0(
0'
1:
1&
#70000
b1111 "
b1101 "
b1100 "
02
05
19
07
1>
0=
0:
13
1(
0&
0%
1$
0>
1=
1:
1&
1%
0$
#72500
b1101 "
12
16
03
0(
1'
#75000
b1111 "
b1110 "
02
15
13
1(
#77500
b1111 "
12
17
06
03
0(
0'
1>
0=
0:
0&
0%
1$
#80000
b11 !
b10 !
b111 "
b11 "
b1 "
b0 "
02
05
09
0;
01
14
07
16
0>
1:
1&
0$
1'
0:
0&
#82500
b1 "
12
13
1(
#85000
b11 "
b10 "
02
15
17
06
03
0(
0'
1:
1&
#87500
b11 "
12
13
1(
#90000
b111 "
b101 "
b100 "
02
05
19
07
1=
0:
16
03
0(
1'
0&
1%
0=
1:
1&
0%
#92500
b101 "
12
13
1(
#95000
b111 "
b110 "
02
15
17
06
03
0(
0'
1=
0:
0&
1%
#97500
b111 "
12
13
1(
#100000
b1111 "
b1011 "
b1001 "
b1000 "
02
05
09
1;
07
1:
16
03
0(
1'
1&
0:
0&
#102500
b1001 "
12
13
1(
#105000
b1011 "
b1010 "
02
15
17
06
03
0(
0'
1:
1&
#107500
b1011 "
12
13
1(
#110000
b1111 "
b1101 "
b1100 "
02
05
19
07
1>
0=
0:
16
03
0(
1'
0&
0%
1$
0>
1=
1:
1&
1%
0$
#112500
b1101 "
12
13
1(
#115000
b1111 "
b1110 "
02
15
17
06
03
0(
0'
1>
0=
0:
0&
0%
1$
#117500
b1111 "
12
13
1(
#120000
b11 !
b111 "
b11 "
b1 "
b0 "
02
05
09
0;
11
07
16
0>
1:
1&
0$
1'
0:
0&
#122500
b1 "
12
17
06
03
0(
0'
1:
1&
#125000
b11 "
b10 "
02
15
13
1(
#127500
b11 "
12
16
03
0(
1'
#130000
b111 "
b101 "
b100 "
02
05
19
07
1=
0:
13
1(
0&
1%
0=
1:
1&
0%
#132500
b101 "
12
17
06
03
0(
0'
1=
0:
0&
1%
#135000
b111 "
b110 "
02
15
13
1(
#137500
b111 "
12
16
03
0(
1'
#140000
b1111 "
b1011 "
b1001 "
b1000 "
02
05
09
1;
07
1:
13
1(
1&
0:
0&
#142500
b1001 "
12
17
06
03
0(
0'
1:
1&
#145000
b1011 "
b1010 "
02
15
13
1(
#147500
b1011 "
12
16
03
0(
1'
#150000
b1111 "
b1101 "
b1100 "
02
05
19
07
1>
0=
0:
13
1(
0&
0%
1$
0>
1=
1:
1&
1%
0$
#152500
b1101 "
12
17
06
03
0(
0'
1>
0=
0:
0&
0%
1$
#155000
b1111 "
b1110 "
02
15
13
1(
#157500
b1111 "
12
16
03
0(
1'
#160000
b111 !
b101 !
b100 !
b111 "
b11 "
b1 "
b0 "
02
05
09
0;
01
04
18
07
0>
1=
06
0'
1%
0$
0=
1:
1&
0%
#162500
b1 "
12
13
1(
#165000
b11 "
b10 "
02
15
16
03
0(
1'
#167500
b11 "
12
13
1(
#170000
b111 "
b101 "
b100 "
02
05
19
1=
0:
06
03
0(
0'
0&
1%
#172500
b101 "
12
13
1(
#175000
b111 "
b110 "
02
15
16
03
0(
1'
#177500
b111 "
12
13
1(
#180000
b1111 "
b1011 "
b1001 "
b1000 "
02
05
09
1;
1:
06
03
0(
0'
1&
#182500
b1001 "
12
13
1(
#185000
b1011 "
b1010 "
02
15
16
03
0(
1'
#187500
b1011 "
12
13
1(
#190000
b1111 "
b1101 "
b1100 "
02
05
19
1>
0=
0:
06
03
0(
0'
0&
0%
1$
#192500
b1101 "
12
13
1(
#195000
b1111 "
b1110 "
02
15
16
03
0(
1'
#197500
b1111 "
12
13
1(
#200000
b101 !
b111 "
b11 "
b1 "
b0 "
02
05
09
0;
11
06
0>
1:
1&
0$
0'
#202500
b1 "
12
16
03
0(
1'
#205000
b11 "
b10 "
02
15
13
1(
#207500
b11 "
12
17
06
03
0(
0'
1=
0:
0&
1%
#210000
b111 "
b101 "
b100 "
02
05
19
07
1:
13
1(
1&
0:
0&
#212500
b101 "
12
16
03
0(
1'
#215000
b111 "
b110 "
02
15
13
1(
#217500
b111 "
12
17
06
03
0(
0'
1:
1&
#220000
b1111 "
b1011 "
b1001 "
b1000 "
02
05
09
1;
07
1>
0=
0:
13
1(
0&
0%
1$
0>
1=
1:
1&
1%
0$
#222500
b1001 "
12
16
03
0(
1'
#225000
b1011 "
b1010 "
02
15
13
1(
#227500
b1011 "
12
17
06
03
0(
0'
1>
0=
0:
0&
0%
1$
#230000
b1111 "
b1101 "
b1100 "
02
05
19
07
1:
13
1(
1&
0:
0&
#232500
b1101 "
12
16
03
0(
1'
#235000
b1111 "
b1110 "
02
15
13
1(
#237500
b1111 "
12
17
06
03
0(
0'
1:
1&
#240000
b111 !
b110 !
b111 "
b11 "
b1 "
b0 "
02
05
09
0;
01
14
07
16
0>
1=
0:
0&
1%
0$
1'
0=
1:
1&
0%
#242500
b1 "
12
13
1(
#245000
b11 "
b10 "
02
15
17
06
03
0(
0'
1=
0:
0&
1%
#247500
b11 "
12
13
1(
#250000
b111 "
b101 "
b100 "
02
05
19
07
1:
16
03
0(
1'
1&
0:
0&
#252500
b101 "
12
13
1(
#255000
b111 "
b110 "
02
15
17
06
03
0(
0'
1:
1&
#257500
b111 "
12
13
1(
#260000
b1111 "
b1011 "
b1001 "
b1000 "
02
05
09
1;
07
1>
0=
0:
16
03
0(
1'
0&
0%
1$
0>
1=
1:
1&
1%
0$
#262500
b1001 "
12
13
1(
#265000
b1011 "
b1010 "
02
15
17
06
03
0(
0'
1>
0=
0:
0&
0%
1$
#267500
b1011 "
12
13
1(
#270000
b1111 "
b1101 "
b1100 "
02
05
19
07
1:
16
03
0(
1'
1&
0:
0&
#272500
b1101 "
12
13
1(
#275000
b1111 "
b1110 "
02
15
17
06
03
0(
0'
1:
1&
#277500
b1111 "
12
13
1(
#280000
b111 !
b111 "
b11 "
b1 "
b0 "
02
05
09
0;
11
07
16
0>
1=
0:
0&
1%
0$
1'
0=
1:
1&
0%
#282500
b1 "
12
17
06
03
0(
0'
1=
0:
0&
1%
#285000
b11 "
b10 "
02
15
13
1(
#287500
b11 "
12
16
03
0(
1'
#290000
b111 "
b101 "
b100 "
02
05
19
07
1:
13
1(
1&
0:
0&
#292500
b101 "
12
17
06
03
0(
0'
1:
1&
#295000
b111 "
b110 "
02
15
13
1(
#297500
b111 "
12
16
03
0(
1'
#300000
b1111 "
b1011 "
b1001 "
b1000 "
02
05
09
1;
07
1>
0=
0:
13
1(
0&
0%
1$
0>
1=
1:
1&
1%
0$
#302500
b1001 "
12
17
06
03
0(
0'
1>
0=
0:
0&
0%
1$
#305000
b1011 "
b1010 "
02
15
13
1(
#307500
b1011 "
12
16
03
0(
1'
#310000
b1111 "
b1101 "
b1100 "
02
05
19
07
1:
13
1(
1&
0:
0&
#312500
b1101 "
12
17
06
03
0(
0'
1:
1&
#315000
b1111 "
b1110 "
02
15
13
1(
#317500
b1111 "
12
16
03
0(
1'
#320000
b1111 !
b1011 !
b1001 !
b1000 !
b111 "
b11 "
b1 "
b0 "
02
05
09
0;
01
04
08
1<
07
0>
1=
06
0'
1%
0$
0:
0&
#322500
b1 "
12
13
1(
#325000
b11 "
b10 "
02
15
16
03
0(
1'
#327500
b11 "
12
13
1(
#330000
b111 "
b101 "
b100 "
02
05
19
1:
06
03
0(
0'
1&
#332500
b101 "
12
13
1(
#335000
b111 "
b110 "
02
15
16
03
0(
1'
#337500
b111 "
12
13
1(
#340000
b1111 "
b1011 "
b1001 "
b1000 "
02
05
09
1;
1>
0=
0:
06
03
0(
0'
0&
0%
1$
#342500
b1001 "
12
13
1(
#345000
b1011 "
b1010 "
02
15
16
03
0(
1'
#347500
b1011 "
12
13
1(
#350000
b1111 "
b1101 "
b1100 "
02
05
19
1:
06
03
0(
0'
1&
#352500
b1101 "
12
13
1(
#355000
b1111 "
b1110 "
02
15
16
03
0(
1'
#357500
b1111 "
12
13
1(
#360000
b1001 !
b111 "
b11 "
b1 "
b0 "
02
05
09
0;
11
06
0>
1=
0:
0&
1%
0$
0'
#362500
b1 "
12
16
03
0(
1'
#365000
b11 "
b10 "
02
15
13
1(
#367500
b11 "
12
17
06
03
0(
0'
1:
1&
#370000
b111 "
b101 "
b100 "
02
05
19
07
1>
0=
0:
13
1(
0&
0%
1$
0>
1=
1:
1&
1%
0$
#372500
b101 "
12
16
03
0(
1'
#375000
b111 "
b110 "
02
15
13
1(
#377500
b111 "
12
17
06
03
0(
0'
1>
0=
0:
0&
0%
1$
#380000
b1111 "
b1011 "
b1001 "
b1000 "
02
05
09
1;
07
1:
13
1(
1&
0:
0&
#382500
b1001 "
12
16
03
0(
1'
#385000
b1011 "
b1010 "
02
15
13
1(
#387500
b1011 "
12
17
06
03
0(
0'
1:
1&
#390000
b1111 "
b1101 "
b1100 "
02
05
19
07
1=
0:
13
1(
0&
1%
0=
1:
1&
0%
#392500
b1101 "
12
16
03
0(
1'
#395000
b1111 "
b1110 "
02
15
13
1(
#397500
b1111 "
12
17
06
03
0(
0'
1=
0:
0&
1%
#400000
b1011 !
b1010 !
b111 "
b11 "
b1 "
b0 "
02
05
09
0;
01
14
07
16
0>
1:
1&
0$
1'
0:
0&
#402500
b1 "
12
13
1(
#405000
b11 "
b10 "
02
15
17
06
03
0(
0'
1:
1&
#407500
b11 "
12
13
1(
#410000
b111 "
b101 "
b100 "
02
05
19
07
1>
0=
0:
16
03
0(
1'
0&
0%
1$
0>
1=
1:
1&
1%
0$
#412500
b101 "
12
13
1(
#415000
b111 "
b110 "
02
15
17
06
03
0(
0'
1>
0=
0:
0&
0%
1$
#417500
b111 "
12
13
1(
#420000
b1111 "
b1011 "
b1001 "
b1000 "
02
05
09
1;
07
1:
16
03
0(
1'
1&
0:
0&
#422500
b1001 "
12
13
1(
#425000
b1011 "
b1010 "
02
15
17
06
03
0(
0'
1:
1&
#427500
b1011 "
12
13
1(
#430000
b1111 "
b1101 "
b1100 "
02
05
19
07
1=
0:
16
03
0(
1'
0&
1%
0=
1:
1&
0%
#432500
b1101 "
12
13
1(
#435000
b1111 "
b1110 "
02
15
17
06
03
0(
0'
1=
0:
0&
1%
#437500
b1111 "
12
13
1(
#440000
b1011 !
b111 "
b11 "
b1 "
b0 "
02
05
09
0;
11
07
16
0>
1:
1&
0$
1'
0:
0&
#442500
b1 "
12
17
06
03
0(
0'
1:
1&
#445000
b11 "
b10 "
02
15
13
1(
#447500
b11 "
12
16
03
0(
1'
#450000
b111 "
b101 "
b100 "
02
05
19
07
1>
0=
0:
13
1(
0&
0%
1$
0>
1=
1:
1&
1%
0$
#452500
b101 "
12
17
06
03
0(
0'
1>
0=
0:
0&
0%
1$
#455000
b111 "
b110 "
02
15
13
1(
#457500
b111 "
12
16
03
0(
1'
#460000
b1111 "
b1011 "
b1001 "
b1000 "
02
05
09
1;
07
1:
13
1(
1&
0:
0&
#462500
b1001 "
12
17
06
03
0(
0'
1:
1&
#465000
b1011 "
b1010 "
02
15
13
1(
#467500
b1011 "
12
16
03
0(
1'
#470000
b1111 "
b1101 "
b1100 "
02
05
19
07
1=
0:
13
1(
0&
1%
0=
1:
1&
0%
#472500
b1101 "
12
17
06
03
0(
0'
1=
0:
0&
1%
#475000
b1111 "
b1110 "
02
15
13
1(
#477500
b1111 "
12
16
03
0(
1'
#480000
b1111 !
b1101 !
b1100 !
b111 "
b11 "
b1 "
b0 "
02
05
09
0;
01
04
18
07
0=
06
0'
0%
0>
1=
1:
1&
1%
0$
#482500
b1 "
12
13
1(
#485000
b11 "
b10 "
02
15
16
03
0(
1'
#487500
b11 "
12
13
1(
#490000
b111 "
b101 "
b100 "
02
05
19
1>
0=
0:
06
03
0(
0'
0&
0%
1$
#492500
b101 "
12
13
1(
#495000
b111 "
b110 "
02
15
16
03
0(
1'
#497500
b111 "
12
13
1(
#500000
b1111 "
b1011 "
b1001 "
b1000 "
02
05
09
1;
1:
06
03
0(
0'
1&
#502500
b1001 "
12
13
1(
#505000
b1011 "
b1010 "
02
15
16
03
0(
1'
#507500
b1011 "
12
13
1(
#510000
b1111 "
b1101 "
b1100 "
02
05
19
1=
0:
06
03
0(
0'
0&
1%
#512500
b1101 "
12
13
1(
#515000
b1111 "
b1110 "
02
15
16
03
0(
1'
#517500
b1111 "
12
13
1(
#520000
b1101 !
b111 "
b11 "
b1 "
b0 "
02
05
09
0;
11
06
0>
1:
1&
0$
0'
#522500
b1 "
12
16
03
0(
1'
#525000
b11 "
b10 "
02
15
13
1(
#527500
b11 "
12
17
06
03
0(
0'
1>
0=
0:
0&
0%
1$
#530000
b111 "
b101 "
b100 "
02
05
19
07
1:
13
1(
1&
0:
0&
#532500
b101 "
12
16
03
0(
1'
#535000
b111 "
b110 "
02
15
13
1(
#537500
b111 "
12
17
06
03
0(
0'
1:
1&
#540000
b1111 "
b1011 "
b1001 "
b1000 "
02
05
09
1;
07
1=
0:
13
1(
0&
1%
0=
1:
1&
0%
#542500
b1001 "
12
16
03
0(
1'
#545000
b1011 "
b1010 "
02
15
13
1(
#547500
b1011 "
12
17
06
03
0(
0'
1=
0:
0&
1%
#550000
b1111 "
b1101 "
b1100 "
02
05
19
07
1:
13
1(
1&
0:
0&
#552500
b1101 "
12
16
03
0(
1'
#555000
b1111 "
b1110 "
02
15
13
1(
#557500
b1111 "
12
17
06
03
0(
0'
1:
1&
#560000
b1111 !
b1110 !
b111 "
b11 "
b1 "
b0 "
02
05
09
0;
01
14
07
16
0=
0:
0&
0%
1'
0>
1=
1:
1&
1%
0$
#562500
b1 "
12
13
1(
#565000
b11 "
b10 "
02
15
17
06
03
0(
0'
1>
0=
0:
0&
0%
1$
#567500
b11 "
12
13
1(
#570000
b111 "
b101 "
b100 "
02
05
19
07
1:
16
03
0(
1'
1&
0:
0&
#572500
b101 "
12
13
1(
#575000
b111 "
b110 "
02
15
17
06
03
0(
0'
1:
1&
#577500
b111 "
12
13
1(
#580000
b1111 "
b1011 "
b1001 "
b1000 "
02
05
09
1;
07
1=
0:
16
03
0(
1'
0&
1%
0=
1:
1&
0%
#582500
b1001 "
12
13
1(
#585000
b1011 "
b1010 "
02
15
17
06
03
0(
0'
1=
0:
0&
1%
#587500
b1011 "
12
13
1(
#590000
b1111 "
b1101 "
b1100 "
02
05
19
07
1:
16
03
0(
1'
1&
0:
0&
#592500
b1101 "
12
13
1(
#595000
b1111 "
b1110 "
02
15
17
06
03
0(
0'
1:
1&
#597500
b1111 "
12
13
1(
#600000
b1111 !
b111 "
b11 "
b1 "
b0 "
02
05
09
0;
11
07
16
0=
0:
0&
0%
1'
0>
1=
1:
1&
1%
0$
#602500
b1 "
12
17
06
03
0(
0'
1>
0=
0:
0&
0%
1$
#605000
b11 "
b10 "
02
15
13
1(
#607500
b11 "
12
16
03
0(
1'
#610000
b111 "
b101 "
b100 "
02
05
19
07
1:
13
1(
1&
0:
0&
#612500
b101 "
12
17
06
03
0(
0'
1:
1&
#615000
b111 "
b110 "
02
15
13
1(
#617500
b111 "
12
16
03
0(
1'
#620000
b1111 "
b1011 "
b1001 "
b1000 "
02
05
09
1;
07
1=
0:
13
1(
0&
1%
0=
1:
1&
0%
#622500
b1001 "
12
17
06
03
0(
0'
1=
0:
0&
1%
#625000
b1011 "
b1010 "
02
15
13
1(
#627500
b1011 "
12
16
03
0(
1'
#630000
b1111 "
b1101 "
b1100 "
02
05
19
07
1:
13
1(
1&
0:
0&
#632500
b1101 "
12
17
06
03
0(
0'
1:
1&
#635000
b1111 "
b1110 "
02
15
13
1(
#637500
b1111 "
12
16
03
0(
1'
#640000
1#
b111 !
b11 !
b1 !
b0 !
b111 "
b11 "
b1 "
b0 "
10
02
05
09
0;
01
04
08
0<
07
0>
0=
06
13
1(
0'
0%
0$
0:
0&
#642500
b1 "
12
16
03
0(
1'
#645000
b11 "
b10 "
02
15
13
1(
#647500
b11 "
12
17
06
03
0(
0'
1:
1&
#650000
b111 "
b101 "
b100 "
02
05
19
07
1=
0:
13
1(
0&
1%
0=
1:
1&
0%
#652500
b101 "
12
16
03
0(
1'
#655000
b111 "
b110 "
02
15
13
1(
#657500
b111 "
12
17
06
03
0(
0'
1=
0:
0&
1%
#660000
b1111 "
b1011 "
b1001 "
b1000 "
02
05
09
1;
07
1:
13
1(
1&
0:
0&
#662500
b1001 "
12
16
03
0(
1'
#665000
b1011 "
b1010 "
02
15
13
1(
#667500
b1011 "
12
17
06
03
0(
0'
1:
1&
#670000
b1111 "
b1101 "
b1100 "
02
05
19
07
1>
0=
0:
13
1(
0&
0%
1$
0>
1=
1:
1&
1%
0$
#672500
b1101 "
12
16
03
0(
1'
#675000
b1111 "
b1110 "
02
15
13
1(
#677500
b1111 "
12
17
06
03
0(
0'
1>
0=
0:
0&
0%
1$
#680000
b1 !
b111 "
b11 "
b1 "
b0 "
02
05
09
0;
11
07
16
0>
1:
1&
0$
1'
0:
0&
#682500
b1 "
12
13
1(
#685000
b11 "
b10 "
02
15
17
06
03
0(
0'
1:
1&
#687500
b11 "
12
13
1(
#690000
b111 "
b101 "
b100 "
02
05
19
07
1=
0:
16
03
0(
1'
0&
1%
0=
1:
1&
0%
#692500
b101 "
12
13
1(
#695000
b111 "
b110 "
02
15
17
06
03
0(
0'
1=
0:
0&
1%
#697500
b111 "
12
13
1(
#700000
b1111 "
b1011 "
b1001 "
b1000 "
02
05
09
1;
07
1:
16
03
0(
1'
1&
0:
0&
#702500
b1001 "
12
13
1(
#705000
b1011 "
b1010 "
02
15
17
06
03
0(
0'
1:
1&
#707500
b1011 "
12
13
1(
#710000
b1111 "
b1101 "
b1100 "
02
05
19
07
1>
0=
0:
16
03
0(
1'
0&
0%
1$
0>
1=
1:
1&
1%
0$
#712500
b1101 "
12
13
1(
#715000
b1111 "
b1110 "
02
15
17
06
03
0(
0'
1>
0=
0:
0&
0%
1$
#717500
b1111 "
12
13
1(
#720000
b11 !
b10 !
b111 "
b11 "
b1 "
b0 "
02
05
09
0;
01
14
07
16
0>
1:
1&
0$
1'
0:
0&
#722500
b1 "
12
17
06
03
0(
0'
1:
1&
#725000
b11 "
b10 "
02
15
13
1(
#727500
b11 "
12
16
03
0(
1'
#730000
b111 "
b101 "
b100 "
02
05
19
07
1=
0:
13
1(
0&
1%
0=
1:
1&
0%
#732500
b101 "
12
17
06
03
0(
0'
1=
0:
0&
1%
#735000
b111 "
b110 "
02
15
13
1(
#737500
b111 "
12
16
03
0(
1'
#740000
b1111 "
b1011 "
b1001 "
b1000 "
02
05
09
1;
07
1:
13
1(
1&
0:
0&
#742500
b1001 "
12
17
06
03
0(
0'
1:
1&
#745000
b1011 "
b1010 "
02
15
13
1(
#747500
b1011 "
12
16
03
0(
1'
#750000
b1111 "
b1101 "
b1100 "
02
05
19
07
1>
0=
0:
13
1(
0&
0%
1$
0>
1=
1:
1&
1%
0$
#752500
b1101 "
12
17
06
03
0(
0'
1>
0=
0:
0&
0%
1$
#755000
b1111 "
b1110 "
02
15
13
1(
#757500
b1111 "
12
16
03
0(
1'
#760000
b11 !
b111 "
b11 "
b1 "
b0 "
02
05
09
0;
11
06
0>
1:
1&
0$
0'
#762500
b1 "
12
13
1(
#765000
b11 "
b10 "
02
15
16
03
0(
1'
#767500
b11 "
12
13
1(
#770000
b111 "
b101 "
b100 "
02
05
19
1=
0:
06
03
0(
0'
0&
1%
#772500
b101 "
12
13
1(
#775000
b111 "
b110 "
02
15
16
03
0(
1'
#777500
b111 "
12
13
1(
#780000
b1111 "
b1011 "
b1001 "
b1000 "
02
05
09
1;
1:
06
03
0(
0'
1&
#782500
b1001 "
12
13
1(
#785000
b1011 "
b1010 "
02
15
16
03
0(
1'
#787500
b1011 "
12
13
1(
#790000
b1111 "
b1101 "
b1100 "
02
05
19
1>
0=
0:
06
03
0(
0'
0&
0%
1$
#792500
b1101 "
12
13
1(
#795000
b1111 "
b1110 "
02
15
16
03
0(
1'
#797500
b1111 "
12
13
1(
#800000
b111 !
b101 !
b100 !
b111 "
b11 "
b1 "
b0 "
02
05
09
0;
01
04
18
07
0>
1=
06
0'
1%
0$
0=
1:
1&
0%
#802500
b1 "
12
16
03
0(
1'
#805000
b11 "
b10 "
02
15
13
1(
#807500
b11 "
12
17
06
03
0(
0'
1=
0:
0&
1%
#810000
b111 "
b101 "
b100 "
02
05
19
07
1:
13
1(
1&
0:
0&
#812500
b101 "
12
16
03
0(
1'
#815000
b111 "
b110 "
02
15
13
1(
#817500
b111 "
12
17
06
03
0(
0'
1:
1&
#820000
b1111 "
b1011 "
b1001 "
b1000 "
02
05
09
1;
07
1>
0=
0:
13
1(
0&
0%
1$
0>
1=
1:
1&
1%
0$
#822500
b1001 "
12
16
03
0(
1'
#825000
b1011 "
b1010 "
02
15
13
1(
#827500
b1011 "
12
17
06
03
0(
0'
1>
0=
0:
0&
0%
1$
#830000
b1111 "
b1101 "
b1100 "
02
05
19
07
1:
13
1(
1&
0:
0&
#832500
b1101 "
12
16
03
0(
1'
#835000
b1111 "
b1110 "
02
15
13
1(
#837500
b1111 "
12
17
06
03
0(
0'
1:
1&
#840000
b101 !
b111 "
b11 "
b1 "
b0 "
02
05
09
0;
11
07
16
0>
1=
0:
0&
1%
0$
1'
0=
1:
1&
0%
#842500
b1 "
12
13
1(
#845000
b11 "
b10 "
02
15
17
06
03
0(
0'
1=
0:
0&
1%
#847500
b11 "
12
13
1(
#850000
b111 "
b101 "
b100 "
02
05
19
07
1:
16
03
0(
1'
1&
0:
0&
#852500
b101 "
12
13
1(
#855000
b111 "
b110 "
02
15
17
06
03
0(
0'
1:
1&
#857500
b111 "
12
13
1(
#860000
b1111 "
b1011 "
b1001 "
b1000 "
02
05
09
1;
07
1>
0=
0:
16
03
0(
1'
0&
0%
1$
0>
1=
1:
1&
1%
0$
#862500
b1001 "
12
13
1(
#865000
b1011 "
b1010 "
02
15
17
06
03
0(
0'
1>
0=
0:
0&
0%
1$
#867500
b1011 "
12
13
1(
#870000
b1111 "
b1101 "
b1100 "
02
05
19
07
1:
16
03
0(
1'
1&
0:
0&
#872500
b1101 "
12
13
1(
#875000
b1111 "
b1110 "
02
15
17
06
03
0(
0'
1:
1&
#877500
b1111 "
12
13
1(
#880000
b111 !
b110 !
b111 "
b11 "
b1 "
b0 "
02
05
09
0;
01
14
07
16
0>
1=
0:
0&
1%
0$
1'
0=
1:
1&
0%
#882500
b1 "
12
17
06
03
0(
0'
1=
0:
0&
1%
#885000
b11 "
b10 "
02
15
13
1(
#887500
b11 "
12
16
03
0(
1'
#890000
b111 "
b101 "
b100 "
02
05
19
07
1:
13
1(
1&
0:
0&
#892500
b101 "
12
17
06
03
0(
0'
1:
1&
#895000
b111 "
b110 "
02
15
13
1(
#897500
b111 "
12
16
03
0(
1'
#900000
b1111 "
b1011 "
b1001 "
b1000 "
02
05
09
1;
07
1>
0=
0:
13
1(
0&
0%
1$
0>
1=
1:
1&
1%
0$
#902500
b1001 "
12
17
06
03
0(
0'
1>
0=
0:
0&
0%
1$
#905000
b1011 "
b1010 "
02
15
13
1(
#907500
b1011 "
12
16
03
0(
1'
#910000
b1111 "
b1101 "
b1100 "
02
05
19
07
1:
13
1(
1&
0:
0&
#912500
b1101 "
12
17
06
03
0(
0'
1:
1&
#915000
b1111 "
b1110 "
02
15
13
1(
#917500
b1111 "
12
16
03
0(
1'
#920000
b111 !
b111 "
b11 "
b1 "
b0 "
02
05
09
0;
11
06
0>
1=
0:
0&
1%
0$
0'
#922500
b1 "
12
13
1(
#925000
b11 "
b10 "
02
15
16
03
0(
1'
#927500
b11 "
12
13
1(
#930000
b111 "
b101 "
b100 "
02
05
19
1:
06
03
0(
0'
1&
#932500
b101 "
12
13
1(
#935000
b111 "
b110 "
02
15
16
03
0(
1'
#937500
b111 "
12
13
1(
#940000
b1111 "
b1011 "
b1001 "
b1000 "
02
05
09
1;
1>
0=
0:
06
03
0(
0'
0&
0%
1$
#942500
b1001 "
12
13
1(
#945000
b1011 "
b1010 "
02
15
16
03
0(
1'
#947500
b1011 "
12
13
1(
#950000
b1111 "
b1101 "
b1100 "
02
05
19
1:
06
03
0(
0'
1&
#952500
b1101 "
12
13
1(
#955000
b1111 "
b1110 "
02
15
16
03
0(
1'
#957500
b1111 "
12
13
1(
#960000
b1111 !
b1011 !
b1001 !
b1000 !
b111 "
b11 "
b1 "
b0 "
02
05
09
0;
01
04
08
1<
07
0>
1=
06
0'
1%
0$
0:
0&
#962500
b1 "
12
16
03
0(
1'
#965000
b11 "
b10 "
02
15
13
1(
#967500
b11 "
12
17
06
03
0(
0'
1:
1&
#970000
b111 "
b101 "
b100 "
02
05
19
07
1>
0=
0:
13
1(
0&
0%
1$
0>
1=
1:
1&
1%
0$
#972500
b101 "
12
16
03
0(
1'
#975000
b111 "
b110 "
02
15
13
1(
#977500
b111 "
12
17
06
03
0(
0'
1>
0=
0:
0&
0%
1$
#980000
b1111 "
b1011 "
b1001 "
b1000 "
02
05
09
1;
07
1:
13
1(
1&
0:
0&
#982500
b1001 "
12
16
03
0(
1'
#985000
b1011 "
b1010 "
02
15
13
1(
#987500
b1011 "
12
17
06
03
0(
0'
1:
1&
#990000
b1111 "
b1101 "
b1100 "
02
05
19
07
1=
0:
13
1(
0&
1%
0=
1:
1&
0%
#992500
b1101 "
12
16
03
0(
1'
#995000
b1111 "
b1110 "
02
15
13
1(
#997500
b1111 "
12
17
06
03
0(
0'
1=
0:
0&
1%
#1000000
b1001 !
b111 "
b11 "
b1 "
b0 "
02
05
09
0;
11
07
16
0>
1:
1&
0$
1'
0:
0&
#1002500
b1 "
12
13
1(
#1005000
b11 "
b10 "
02
15
17
06
03
0(
0'
1:
1&
#1007500
b11 "
12
13
1(
#1010000
b111 "
b101 "
b100 "
02
05
19
07
1>
0=
0:
16
03
0(
1'
0&
0%
1$
0>
1=
1:
1&
1%
0$
#1012500
b101 "
12
13
1(
#1015000
b111 "
b110 "
02
15
17
06
03
0(
0'
1>
0=
0:
0&
0%
1$
#1017500
b111 "
12
13
1(
#1020000
b1111 "
b1011 "
b1001 "
b1000 "
02
05
09
1;
07
1:
16
03
0(
1'
1&
0:
0&
#1022500
b1001 "
12
13
1(
#1025000
b1011 "
b1010 "
02
15
17
06
03
0(
0'
1:
1&
#1027500
b1011 "
12
13
1(
#1030000
b1111 "
b1101 "
b1100 "
02
05
19
07
1=
0:
16
03
0(
1'
0&
1%
0=
1:
1&
0%
#1032500
b1101 "
12
13
1(
#1035000
b1111 "
b1110 "
02
15
17
06
03
0(
0'
1=
0:
0&
1%
#1037500
b1111 "
12
13
1(
#1040000
b1011 !
b1010 !
b111 "
b11 "
b1 "
b0 "
02
05
09
0;
01
14
07
16
0>
1:
1&
0$
1'
0:
0&
