simulation/qsim/SW2_on_board.msim.vcd
$comment
	File created using the following command:
		vcd file SW2_on_board.msim.vcd -direction
$end
$date
	Tue Mar 08 13:05:55 2022
$end
$version
	ModelSim Version 10.5b
$end
$timescale
	1ps
$end

$scope module SW2_on_board_vlg_vec_tst $end
$var reg 10 ! SW [9:0] $end
$var wire 1 " LEDR [9] $end
$var wire 1 # LEDR [8] $end
$var wire 1 $ LEDR [7] $end
$var wire 1 % LEDR [6] $end
$var wire 1 & LEDR [5] $end
$var wire 1 ' LEDR [4] $end
$var wire 1 ( LEDR [3] $end
$var wire 1 ) LEDR [2] $end
$var wire 1 * LEDR [1] $end
$var wire 1 + LEDR [0] $end

$scope module i1 $end
$var wire 1 , gnd $end
$var wire 1 - vcc $end
$var wire 1 . unknown $end
$var tri1 1 / devclrn $end
$var tri1 1 0 devpor $end
$var tri1 1 1 devoe $end
$var wire 1 2 SW[8]~input_o $end
$var wire 1 3 ~QUARTUS_CREATED_GND~I_combout $end
$var wire 1 4 SW[4]~input_o $end
$var wire 1 5 SW[9]~input_o $end
$var wire 1 6 SW[0]~input_o $end
$var wire 1 7 ex|u1|s~combout $end
$var wire 1 8 SW[5]~input_o $end
$var wire 1 9 SW[1]~input_o $end
$var wire 1 : ex|u2|s~combout $end
$var wire 1 ; ex|u2|cout~combout $end
$var wire 1 < SW[6]~input_o $end
$var wire 1 = SW[2]~input_o $end
$var wire 1 > ex|u3|s~combout $end
$var wire 1 ? SW[3]~input_o $end
$var wire 1 @ SW[7]~input_o $end
$var wire 1 A ex|u4|s~combout $end
$var wire 1 B ex|u4|cout~combout $end
$upscope $end
$upscope $end
$enddefinitions $end
#0
$dumpvars
b0 !
0+
0*
0)
0(
0'
0&
0%
0$
0#
0"
0,
1-
x.
1/
10
11
02
03
04
05
06
07
08
09
0:
0;
0<
0=
0>
0?
0@
0A
0B
$end
#1250
b1 !
16
17
1+
#2500
b11 !
b10 !
06
19
1:
07
0+
1*
#3750
b11 !
16
17
1+
#5000
b111 !
b101 !
b100 !
06
09
1=
1>
0:
07
0+
0*
1)
#6250
b101 !
16
17
1+
#7500
b111 !
b110 !
06
19
1:
07
0+
1*
#8750
b111 !
16
17
1+
#10000
b1111 !
b1011 !
b1001 !
b1000 !
06
09
0=
1?
1A
0>
0:
07
0+
0*
0)
1(
#11250
b1001 !
16
17
1+
#12500
b1011 !
b1010 !
06
19
1:
07
0+
1*
#13750
b1011 !
16
17
1+
#15000
b1111 !
b1101 !
b1100 !
06
09
1=
1>
0:
07
0+
0*
1)
#16250
b1101 !
16
17
1+
#17500
b1111 !
b1110 !
06
19
1:
07
0+
1*
#18750
b1111 !
16
17
1+
#20000
b11111 !
b10111 !
b10011 !
b10001 !
b10000 !
06
09
0=
0?
14
0:
0A
0>
0)
0(
0*
#21250
b10001 !
16
1:
07
0+
1*
#22500
b10011 !
b10010 !
06
19
17
1+
#23750
b10011 !
16
1;
0:
07
0+
0*
1>
1)
#25000
b10111 !
b10101 !
b10100 !
06
09
1=
0;
1A
0>
17
1+
0)
1(
0A
1>
1)
0(
#26250
b10101 !
16
1:
07
0+
1*
#27500
b10111 !
b10110 !
06
19
17
1+
#28750
b10111 !
16
1;
0:
07
0+
0*
1A
0>
0)
1(
#30000
b11111 !
b11011 !
b11001 !
b11000 !
06
09
0=
1?
0;
1>
17
1+
1)
0>
0)
#31250
b11001 !
16
1:
07
0+
1*
#32500
b11011 !
b11010 !
06
19
17
1+
#33750
b11011 !
16
1;
0:
07
0+
0*
1>
1)
#35000
b11111 !
b11101 !
b11100 !
06
09
1=
0;
1B
0A
0>
17
1+
0)
0(
1"
0B
1A
1>
1)
1(
0"
#36250
b11101 !
16
1:
07
0+
1*
#37500
b11111 !
b11110 !
06
19
17
1+
#38750
b11111 !
16
1;
0:
07
0+
0*
1B
0A
0>
0)
0(
1"
#40000
b111111 !
b101111 !
b100111 !
b100011 !
b100001 !
b100000 !
06
09
0=
0?
04
18
0;
1:
0B
1>
1)
0"
1*
0>
0)
#41250
b100001 !
16
17
1+
#42500
b100011 !
b100010 !
06
19
1;
0:
07
0+
0*
1>
1)
#43750
b100011 !
16
17
1+
#45000
b100111 !
b100101 !
b100100 !
06
09
1=
0;
1A
0>
1:
07
0+
1*
0)
1(
0A
1>
1)
0(
#46250
b100101 !
16
17
1+
#47500
b100111 !
b100110 !
06
19
1;
0:
07
0+
0*
1A
0>
0)
1(
#48750
b100111 !
16
17
1+
#50000
b101111 !
b101011 !
b101001 !
b101000 !
06
09
0=
1?
0;
1>
1:
07
0+
1*
1)
0>
0)
#51250
b101001 !
16
17
1+
#52500
b101011 !
b101010 !
06
19
1;
0:
07
0+
0*
1>
1)
#53750
b101011 !
16
17
1+
#55000
b101111 !
b101101 !
b101100 !
06
09
1=
0;
1B
0A
0>
1:
07
0+
1*
0)
0(
1"
0B
1A
1>
1)
1(
0"
#56250
b101101 !
16
17
1+
#57500
b101111 !
b101110 !
06
19
1;
0:
07
0+
0*
1B
0A
0>
0)
0(
1"
#58750
b101111 !
16
17
1+
#60000
b111111 !
b110111 !
b110011 !
b110001 !
b110000 !
06
09
0=
0?
14
0;
1:
0B
1>
1)
0"
1*
0>
0)
#61250
b110001 !
16
1;
0:
07
0+
0*
1>
1)
#62500
b110011 !
b110010 !
06
19
17
1+
#63750
b110011 !
16
1:
07
0+
1*
#65000
b110111 !
b110101 !
b110100 !
06
09
1=
0;
1A
0>
17
1+
0)
1(
0A
1>
1)
0(
#66250
b110101 !
16
1;
0:
07
0+
0*
1A
0>
0)
1(
#67500
b110111 !
b110110 !
06
19
17
1+
#68750
b110111 !
16
1:
07
0+
1*
#70000
b111111 !
b111011 !
b111001 !
b111000 !
06
09
0=
1?
0;
1>
17
1+
1)
0>
0)
#71250
b111001 !
16
1;
0:
07
0+
0*
1>
1)
#72500
b111011 !
b111010 !
06
19
17
1+
#73750
b111011 !
16
1:
07
0+
1*
#75000
b111111 !
b111101 !
b111100 !
06
09
1=
0;
1B
0A
0>
17
1+
0)
0(
1"
0B
1A
1>
1)
1(
0"
#76250
b111101 !
16
1;
0:
07
0+
0*
1B
0A
0>
0)
0(
1"
#77500
b111111 !
b111110 !
06
19
17
1+
#78750
b111111 !
16
1:
07
0+
1*
#80000
b1111111 !
b1011111 !
b1001111 !
b1000111 !
b1000011 !
b1000001 !
b1000000 !
06
09
0=
0?
04
08
1<
0;
0B
1A
0:
0*
1(
0"
0A
1>
1)
0(
#81250
b1000001 !
16
17
1+
#82500
b1000011 !
b1000010 !
06
19
1:
07
0+
1*
#83750
b1000011 !
16
17
1+
#85000
b1000111 !
b1000101 !
b1000100 !
06
09
1=
1A
0>
0:
07
0+
0*
0)
1(
#86250
b1000101 !
16
17
1+
#87500
b1000111 !
b1000110 !
06
19
1:
07
0+
1*
#88750
b1000111 !
16
17
1+
#90000
b1001111 !
b1001011 !
b1001001 !
b1001000 !
06
09
0=
1?
1>
0:
07
0+
0*
1)
#91250
b1001001 !
16
17
1+
#92500
b1001011 !
b1001010 !
06
19
1:
07
0+
1*
#93750
b1001011 !
16
17
1+
#95000
b1001111 !
b1001101 !
b1001100 !
06
09
1=
1B
0A
0>
0:
07
0+
0*
0)
0(
1"
#96250
b1001101 !
16
17
1+
#97500
b1001111 !
b1001110 !
06
19
1:
07
0+
1*
#98750
b1001111 !
16
17
1+
#100000
b1011111 !
b1010111 !
b1010011 !
b1010001 !
b1010000 !
06
09
0=
0?
14
0:
0B
1>
1)
0"
0*
#101250
b1010001 !
16
1:
07
0+
1*
#102500
b1010011 !
b1010010 !
06
19
17
1+
#103750
b1010011 !
16
1;
0:
07
0+
0*
1A
0>
0)
1(
#105000
b1010111 !
b1010101 !
b1010100 !
06
09
1=
0;
1>
17
1+
1)
0>
0)
#106250
b1010101 !
16
1:
07
0+
1*
#107500
b1010111 !
b1010110 !
06
19
17
1+
#108750
b1010111 !
16
1;
0:
07
0+
0*
1>
1)
#110000
b1011111 !
b1011011 !
b1011001 !
b1011000 !
06
09
0=
1?
0;
1B
0A
0>
17
1+
0)
0(
1"
0B
1A
1>
1)
1(
0"
#111250
b1011001 !
16
1:
07
0+
1*
#112500
b1011011 !
b1011010 !
06
19
17
1+
#113750
b1011011 !
16
1;
0:
07
0+
0*
1B
0A
0>
0)
0(
1"
#115000
b1011111 !
b1011101 !
b1011100 !
06
09
1=
0;
1>
17
1+
1)
0>
0)
#116250
b1011101 !
16
1:
07
0+
1*
#117500
b1011111 !
b1011110 !
06
19
17
1+
#118750
b1011111 !
16
1;
0:
07
0+
0*
1>
1)
#120000
b1111111 !
b1101111 !
b1100111 !
b1100011 !
b1100001 !
b1100000 !
06
09
0=
0?
04
18
0;
1:
0B
1A
0>
0)
1(
0"
1*
0A
1>
1)
0(
#121250
b1100001 !
16
17
1+
#122500
b1100011 !
b1100010 !
06
19
1;
0:
07
0+
0*
1A
0>
0)
1(
#123750
b1100011 !
16
17
1+
#125000
b1100111 !
b1100101 !
b1100100 !
06
09
1=
0;
1>
1:
07
0+
1*
1)
0>
0)
#126250
b1100101 !
16
17
1+
#127500
b1100111 !
b1100110 !
06
19
1;
0:
07
0+
0*
1>
1)
#128750
b1100111 !
16
17
1+
#130000
b1101111 !
b1101011 !
b1101001 !
b1101000 !
06
09
0=
1?
0;
1B
0A
0>
1:
07
0+
1*
0)
0(
1"
0B
1A
1>
1)
1(
0"
#131250
b1101001 !
16
17
1+
#132500
b1101011 !
b1101010 !
06
19
1;
0:
07
0+
0*
1B
0A
0>
0)
0(
1"
#133750
b1101011 !
16
17
1+
#135000
b1101111 !
b1101101 !
b1101100 !
06
09
1=
0;
1>
1:
07
0+
1*
1)
0>
0)
#136250
b1101101 !
16
17
1+
#137500
b1101111 !
b1101110 !
06
19
1;
0:
07
0+
0*
1>
1)
#138750
b1101111 !
16
17
1+
#140000
b1111111 !
b1110111 !
b1110011 !
b1110001 !
b1110000 !
06
09
0=
0?
14
0;
1:
0B
1A
0>
0)
1(
0"
1*
0A
1>
1)
0(
#141250
b1110001 !
16
1;
0:
07
0+
0*
1A
0>
0)
1(
#142500
b1110011 !
b1110010 !
06
19
17
1+
#143750
b1110011 !
16
1:
07
0+
1*
#145000
b1110111 !
b1110101 !
b1110100 !
06
09
1=
0;
1>
17
1+
1)
0>
0)
#146250
b1110101 !
16
1;
0:
07
0+
0*
1>
1)
#147500
b1110111 !
b1110110 !
06
19
17
1+
#148750
b1110111 !
16
1:
07
0+
1*
#150000
b1111111 !
b1111011 !
b1111001 !
b1111000 !
06
09
0=
1?
0;
1B
0A
0>
17
1+
0)
0(
1"
0B
1A
1>
1)
1(
0"
#151250
b1111001 !
16
1;
0:
07
0+
0*
1B
0A
0>
0)
0(
1"
#152500
b1111011 !
b1111010 !
06
19
17
1+
#153750
b1111011 !
16
1:
07
0+
1*
#155000
b1111111 !
b1111101 !
b1111100 !
06
09
1=
0;
1>
17
1+
1)
0>
0)
#156250
b1111101 !
16
1;
0:
07
0+
0*
1>
1)
#157500
b1111111 !
b1111110 !
06
19
17
1+
#158750
b1111111 !
16
1:
07
0+
1*
#160000
b11111111 !
b10111111 !
b10011111 !
b10001111 !
b10000111 !
b10000011 !
b10000001 !
b10000000 !
06
09
0=
0?
04
08
0<
1@
0;
0B
1A
0:
0*
1(
0"
0>
0)
#161250
b10000001 !
16
17
1+
#162500
b10000011 !
b10000010 !
06
19
1:
07
0+
1*
#163750
b10000011 !
16
17
1+
#165000
b10000111 !
b10000101 !
b10000100 !
06
09
1=
1>
0:
07
0+
0*
1)
#166250
b10000101 !
16
17
1+
#167500
b10000111 !
b10000110 !
06
19
1:
07
0+
1*
#168750
b10000111 !
16
17
1+
#170000
b10001111 !
b10001011 !
b10001001 !
b10001000 !
06
09
0=
1?
1B
0A
0>
0:
07
0+
0*
0)
0(
1"
#171250
b10001001 !
16
17
1+
#172500
b10001011 !
b10001010 !
06
19
1:
07
0+
1*
#173750
b10001011 !
16
17
1+
#175000
b10001111 !
b10001101 !
b10001100 !
06
09
1=
1>
0:
07
0+
0*
1)
#176250
b10001101 !
16
17
1+
#177500
b10001111 !
b10001110 !
06
19
1:
07
0+
1*
#178750
b10001111 !
16
17
1+
#180000
b10011111 !
b10010111 !
b10010011 !
b10010001 !
b10010000 !
06
09
0=
0?
14
0:
0B
1A
0>
0)
1(
0"
0*
#181250
b10010001 !
16
1:
07
0+
1*
#182500
b10010011 !
b10010010 !
06
19
17
1+
#183750
b10010011 !
16
1;
0:
07
0+
0*
1>
1)
#185000
b10010111 !
b10010101 !
b10010100 !
06
09
1=
0;
1B
0A
0>
17
1+
0)
0(
1"
0B
1A
1>
1)
1(
0"
#186250
b10010101 !
16
1:
07
0+
1*
#187500
b10010111 !
b10010110 !
06
19
17
1+
#188750
b10010111 !
16
1;
0:
07
0+
0*
1B
0A
0>
0)
0(
1"
#190000
b10011111 !
b10011011 !
b10011001 !
b10011000 !
06
09
0=
1?
0;
1>
17
1+
1)
0>
0)
#191250
b10011001 !
16
1:
07
0+
1*
#192500
b10011011 !
b10011010 !
06
19
17
1+
#193750
b10011011 !
16
1;
0:
07
0+
0*
1>
1)
#195000
b10011111 !
b10011101 !
b10011100 !
06
09
1=
0;
1A
0>
17
1+
0)
1(
0A
1>
1)
0(
#196250
b10011101 !
16
1:
07
0+
1*
#197500
b10011111 !
b10011110 !
06
19
17
1+
#198750
b10011111 !
16
1;
0:
07
0+
0*
1A
0>
0)
1(
#200000
b10111111 !
b10101111 !
b10100111 !
b10100011 !
b10100001 !
b10100000 !
06
09
0=
0?
04
18
0;
1:
0B
1>
1)
0"
1*
0>
0)
#201250
b10100001 !
16
17
1+
#202500
b10100011 !
b10100010 !
06
19
1;
0:
07
0+
0*
1>
1)
#203750
b10100011 !
16
17
1+
#205000
b10100111 !
b10100101 !
b10100100 !
06
09
1=
0;
1B
0A
0>
1:
07
0+
1*
0)
0(
1"
0B
1A
1>
1)
1(
0"
#206250
b10100101 !
16
17
1+
#207500
b10100111 !
b10100110 !
06
19
1;
0:
07
0+
0*
1B
0A
0>
0)
0(
1"
#208750
b10100111 !
16
17
1+
#210000
b10101111 !
b10101011 !
b10101001 !
b10101000 !
06
09
0=
1?
0;
1>
1:
07
0+
1*
1)
0>
0)
#211250
b10101001 !
16
17
1+
#212500
b10101011 !
b10101010 !
06
19
1;
0:
07
0+
0*
1>
1)
#213750
b10101011 !
16
17
1+
#215000
b10101111 !
b10101101 !
b10101100 !
06
09
1=
0;
1A
0>
1:
07
0+
1*
0)
1(
0A
1>
1)
0(
#216250
b10101101 !
16
17
1+
#217500
b10101111 !
b10101110 !
06
19
1;
0:
07
0+
0*
1A
0>
0)
1(
#218750
b10101111 !
16
17
1+
#220000
b10111111 !
b10110111 !
b10110011 !
b10110001 !
b10110000 !
06
09
0=
0?
14
0;
1:
0B
1>
1)
0"
1*
0>
0)
#221250
b10110001 !
16
1;
0:
07
0+
0*
1>
1)
#222500
b10110011 !
b10110010 !
06
19
17
1+
#223750
b10110011 !
16
1:
07
0+
1*
#225000
b10110111 !
b10110101 !
b10110100 !
06
09
1=
0;
1B
0A
0>
17
1+
0)
0(
1"
0B
1A
1>
1)
1(
0"
#226250
b10110101 !
16
1;
0:
07
0+
0*
1B
0A
0>
0)
0(
1"
#227500
b10110111 !
b10110110 !
06
19
17
1+
#228750
b10110111 !
16
1:
07
0+
1*
#230000
b10111111 !
b10111011 !
b10111001 !
b10111000 !
06
09
0=
1?
0;
1>
17
1+
1)
0>
0)
#231250
b10111001 !
16
1;
0:
07
0+
0*
1>
1)
#232500
b10111011 !
b10111010 !
06
19
17
1+
#233750
b10111011 !
16
1:
07
0+
1*
#235000
b10111111 !
b10111101 !
b10111100 !
06
09
1=
0;
1A
0>
17
1+
0)
1(
0A
1>
1)
0(
#236250
b10111101 !
16
1;
0:
07
0+
0*
1A
0>
0)
1(
#237500
b10111111 !
b10111110 !
06
19
17
1+
#238750
b10111111 !
16
1:
07
0+
1*
#240000
b11111111 !
b11011111 !
b11001111 !
b11000111 !
b11000011 !
b11000001 !
b11000000 !
06
09
0=
0?
04
08
1<
0;
0A
0:
0*
0(
0B
1A
1>
1)
1(
0"
#241250
b11000001 !
16
17
1+
#242500
b11000011 !
b11000010 !
06
19
1:
07
0+
1*
#243750
b11000011 !
16
17
1+
#245000
b11000111 !
b11000101 !
b11000100 !
06
09
1=
1B
0A
0>
0:
07
0+
0*
0)
0(
1"
#246250
b11000101 !
16
17
1+
#247500
b11000111 !
b11000110 !
06
19
1:
07
0+
1*
#248750
b11000111 !
16
17
1+
#250000
b11001111 !
b11001011 !
b11001001 !
b11001000 !
06
09
0=
1?
1>
0:
07
0+
0*
1)
#251250
b11001001 !
16
17
1+
#252500
b11001011 !
b11001010 !
06
19
1:
07
0+
1*
#253750
b11001011 !
16
17
1+
#255000
b11001111 !
b11001101 !
b11001100 !
06
09
1=
1A
0>
0:
07
0+
0*
0)
1(
#256250
b11001101 !
16
17
1+
#257500
b11001111 !
b11001110 !
06
19
1:
07
0+
1*
#258750
b11001111 !
16
17
1+
#260000
b11011111 !
b11010111 !
b11010011 !
b11010001 !
b11010000 !
06
09
0=
0?
14
0:
0B
1>
1)
0"
0*
#261250
b11010001 !
16
1:
07
0+
1*
#262500
b11010011 !
b11010010 !
06
19
17
1+
#263750
b11010011 !
16
1;
0:
07
0+
0*
1B
0A
0>
0)
0(
1"
#265000
b11010111 !
b11010101 !
b11010100 !
06
09
1=
0;
1>
17
1+
1)
0>
0)
#266250
b11010101 !
16
1:
07
0+
1*
#267500
b11010111 !
b11010110 !
06
19
17
1+
#268750
b11010111 !
16
1;
0:
07
0+
0*
1>
1)
#270000
b11011111 !
b11011011 !
b11011001 !
b11011000 !
06
09
0=
1?
0;
1A
0>
17
1+
0)
1(
0A
1>
1)
0(
#271250
b11011001 !
16
1:
07
0+
1*
#272500
b11011011 !
b11011010 !
06
19
17
1+
#273750
b11011011 !
16
1;
0:
07
0+
0*
1A
0>
0)
1(
#275000
b11011111 !
b11011101 !
b11011100 !
06
09
1=
0;
1>
17
1+
1)
0>
0)
#276250
b11011101 !
16
1:
07
0+
1*
#277500
b11011111 !
b11011110 !
06
19
17
1+
#278750
b11011111 !
16
1;
0:
07
0+
0*
1>
1)
#280000
b11111111 !
b11101111 !
b11100111 !
b11100011 !
b11100001 !
b11100000 !
06
09
0=
0?
04
18
0;
1:
0A
0>
0)
0(
1*
0B
1A
1>
1)
1(
0"
#281250
b11100001 !
16
17
1+
#282500
b11100011 !
b11100010 !
06
19
1;
0:
07
0+
0*
1B
0A
0>
0)
0(
1"
#283750
b11100011 !
16
17
1+
#285000
b11100111 !
b11100101 !
b11100100 !
06
09
1=
0;
1>
1:
07
0+
1*
1)
0>
0)
#286250
b11100101 !
16
17
1+
#287500
b11100111 !
b11100110 !
06
19
1;
0:
07
0+
0*
1>
1)
#288750
b11100111 !
16
17
1+
#290000
b11101111 !
b11101011 !
b11101001 !
b11101000 !
06
09
0=
1?
0;
1A
0>
1:
07
0+
1*
0)
1(
0A
1>
1)
0(
#291250
b11101001 !
16
17
1+
#292500
b11101011 !
b11101010 !
06
19
1;
0:
07
0+
0*
1A
0>
0)
1(
#293750
b11101011 !
16
17
1+
#295000
b11101111 !
b11101101 !
b11101100 !
06
09
1=
0;
1>
1:
07
0+
1*
1)
0>
0)
#296250
b11101101 !
16
17
1+
#297500
b11101111 !
b11101110 !
06
19
1;
0:
07
0+
0*
1>
1)
#298750
b11101111 !
16
17
1+
#300000
b11111111 !
b11110111 !
b11110011 !
b11110001 !
b11110000 !
06
09
0=
0?
14
0;
1:
0A
0>
0)
0(
1*
0B
1A
1>
1)
1(
0"
#301250
b11110001 !
16
1;
0:
07
0+
0*
1B
0A
0>
0)
0(
1"
#302500
b11110011 !
b11110010 !
06
19
17
1+
#303750
b11110011 !
16
1:
07
0+
1*
#305000
b11110111 !
b11110101 !
b11110100 !
06
09
1=
0;
1>
17
1+
1)
0>
0)
#306250
b11110101 !
16
1;
0:
07
0+
0*
1>
1)
#307500
b11110111 !
b11110110 !
06
19
17
1+
#308750
b11110111 !
16
1:
07
0+
1*
#310000
b11111111 !
b11111011 !
b11111001 !
b11111000 !
06
09
0=
1?
0;
1A
0>
17
1+
0)
1(
0A
1>
1)
0(
#311250
b11111001 !
16
1;
0:
07
0+
0*
1A
0>
0)
1(
#312500
b11111011 !
b11111010 !
06
19
17
1+
#313750
b11111011 !
16
1:
07
0+
1*
#315000
b11111111 !
b11111101 !
b11111100 !
06
09
1=
0;
1>
17
1+
1)
0>
0)
#316250
b11111101 !
16
1;
0:
07
0+
0*
1>
1)
#317500
b11111111 !
b11111110 !
06
19
17
1+
#318750
b11111111 !
16
1:
07
0+
1*
#320000
b111111111 !
b101111111 !
b100111111 !
b100011111 !
b100001111 !
b100000111 !
b100000011 !
b100000001 !
b100000000 !
06
09
0=
0?
04
08
0<
0@
12
0;
0B
0A
0:
0*
0(
0"
0>
0)
#321250
b100000001 !
16
17
1+
#322500
b100000011 !
b100000010 !
06
19
1:
07
0+
1*
#323750
b100000011 !
16
17
1+
#325000
b100000111 !
b100000101 !
b100000100 !
06
09
1=
1>
0:
07
0+
0*
1)
#326250
b100000101 !
16
17
1+
#327500
b100000111 !
b100000110 !
06
19
1:
07
0+
1*
#328750
b100000111 !
16
17
1+
#330000
b100001111 !
b100001011 !
b100001001 !
b100001000 !
06
09
0=
1?
1A
0>
0:
07
0+
0*
0)
1(
#331250
b100001001 !
16
17
1+
#332500
b100001011 !
b100001010 !
06
19
1:
07
0+
1*
#333750
b100001011 !
16
17
1+
#335000
b100001111 !
b100001101 !
b100001100 !
06
09
1=
1>
0:
07
0+
0*
1)
#336250
b100001101 !
16
17
1+
#337500
b100001111 !
b100001110 !
06
19
1:
07
0+
1*
#338750
b100001111 !
16
17
1+
#340000
b100011111 !
b100010111 !
b100010011 !
b100010001 !
b100010000 !
06
09
0=
0?
14
0:
0A
0>
0)
0(
0*
#341250
b100010001 !
16
1:
07
0+
1*
#342500
b100010011 !
b100010010 !
06
19
17
1+
#343750
b100010011 !
16
1;
0:
07
0+
0*
1>
1)
#345000
b100010111 !
b100010101 !
b100010100 !
06
09
1=
0;
1A
0>
17
1+
0)
1(
0A
1>
1)
0(
#346250
b100010101 !
16
1:
07
0+
1*
#347500
b100010111 !
b100010110 !
06
19
17
1+
#348750
b100010111 !
16
1;
0:
07
0+
0*
1A
0>
0)
1(
#350000
b100011111 !
b100011011 !
b100011001 !
b100011000 !
06
09
0=
1?
0;
1>
17
1+
1)
0>
0)
#351250
b100011001 !
16
1:
07
0+
1*
#352500
b100011011 !
b100011010 !
06
19
17
1+
#353750
b100011011 !
16
1;
0:
07
0+
0*
1>
1)
#355000
b100011111 !
b100011101 !
b100011100 !
06
09
1=
0;
1B
0A
0>
17
1+
0)
0(
1"
0B
1A
1>
1)
1(
0"
#356250
b100011101 !
16
1:
07
0+
1*
#357500
b100011111 !
b100011110 !
06
19
17
1+
#358750
b100011111 !
16
1;
0:
07
0+
0*
1B
0A
0>
0)
0(
1"
#360000
b100111111 !
b100101111 !
b100100111 !
b100100011 !
b100100001 !
b100100000 !
06
09
0=
0?
04
18
0;
1:
0B
1>
1)
0"
1*
0>
0)
#361250
b100100001 !
16
17
1+
#362500
b100100011 !
b100100010 !
06
19
1;
0:
07
0+
0*
1>
1)
#363750
b100100011 !
16
17
1+
#365000
b100100111 !
b100100101 !
b100100100 !
06
09
1=
0;
1A
0>
1:
07
0+
1*
0)
1(
0A
1>
1)
0(
#366250
b100100101 !
16
17
1+
#367500
b100100111 !
b100100110 !
06
19
1;
0:
07
0+
0*
1A
0>
0)
1(
#368750
b100100111 !
16
17
1+
#370000
b100101111 !
b100101011 !
b100101001 !
b100101000 !
06
09
0=
1?
0;
1>
1:
07
0+
1*
1)
0>
0)
#371250
b100101001 !
16
17
1+
#372500
b100101011 !
b100101010 !
06
19
1;
0:
07
0+
0*
1>
1)
#373750
b100101011 !
16
17
1+
#375000
b100101111 !
b100101101 !
b100101100 !
06
09
1=
0;
1B
0A
0>
1:
07
0+
1*
0)
0(
1"
0B
1A
1>
1)
1(
0"
#376250
b100101101 !
16
17
1+
#377500
b100101111 !
b100101110 !
06
19
1;
0:
07
0+
0*
1B
0A
0>
0)
0(
1"
#378750
b100101111 !
16
17
1+
#380000
b100111111 !
b100110111 !
b100110011 !
b100110001 !
b100110000 !
06
09
0=
0?
14
0;
1:
0B
1>
1)
0"
1*
0>
0)
#381250
b100110001 !
16
1;
0:
07
0+
0*
1>
1)
#382500
b100110011 !
b100110010 !
06
19
17
1+
#383750
b100110011 !
16
1:
07
0+
1*
#385000
b100110111 !
b100110101 !
b100110100 !
06
09
1=
0;
1A
0>
17
1+
0)
1(
0A
1>
1)
0(
#386250
b100110101 !
16
1;
0:
07
0+
0*
1A
0>
0)
1(
#387500
b100110111 !
b100110110 !
06
19
17
1+
#388750
b100110111 !
16
1:
07
0+
1*
#390000
b100111111 !
b100111011 !
b100111001 !
b100111000 !
06
09
0=
1?
0;
1>
17
1+
1)
0>
0)
#391250
b100111001 !
16
1;
0:
07
0+
0*
1>
1)
#392500
b100111011 !
b100111010 !
06
19
17
1+
#393750
b100111011 !
16
1:
07
0+
1*
#395000
b100111111 !
b100111101 !
b100111100 !
06
09
1=
0;
1B
0A
0>
17
1+
0)
0(
1"
0B
1A
1>
1)
1(
0"
#396250
b100111101 !
16
1;
0:
07
0+
0*
1B
0A
0>
0)
0(
1"
#397500
b100111111 !
b100111110 !
06
19
17
1+
#398750
b100111111 !
16
1:
07
0+
1*
#400000
b101111111 !
b101011111 !
b101001111 !
b101000111 !
b101000011 !
b101000001 !
b101000000 !
06
09
0=
0?
04
08
1<
0;
0B
1A
0:
0*
1(
0"
0A
1>
1)
0(
#401250
b101000001 !
16
17
1+
#402500
b101000011 !
b101000010 !
06
19
1:
07
0+
1*
#403750
b101000011 !
16
17
1+
#405000
b101000111 !
b101000101 !
b101000100 !
06
09
1=
1A
0>
0:
07
0+
0*
0)
1(
#406250
b101000101 !
16
17
1+
#407500
b101000111 !
b101000110 !
06
19
1:
07
0+
1*
#408750
b101000111 !
16
17
1+
#410000
b101001111 !
b101001011 !
b101001001 !
b101001000 !
06
09
0=
1?
1>
0:
07
0+
0*
1)
#411250
b101001001 !
16
17
1+
#412500
b101001011 !
b101001010 !
06
19
1:
07
0+
1*
#413750
b101001011 !
16
17
1+
#415000
b101001111 !
b101001101 !
b101001100 !
06
09
1=
1B
0A
0>
0:
07
0+
0*
0)
0(
1"
#416250
b101001101 !
16
17
1+
#417500
b101001111 !
b101001110 !
06
19
1:
07
0+
1*
#418750
b101001111 !
16
17
1+
#420000
b101011111 !
b101010111 !
b101010011 !
b101010001 !
b101010000 !
06
09
0=
0?
14
0:
0B
1>
1)
0"
0*
#421250
b101010001 !
16
1:
07
0+
1*
#422500
b101010011 !
b101010010 !
06
19
17
1+
#423750
b101010011 !
16
1;
0:
07
0+
0*
1A
0>
0)
1(
#425000
b101010111 !
b101010101 !
b101010100 !
06
09
1=
0;
1>
17
1+
1)
0>
0)
#426250
b101010101 !
16
1:
07
0+
1*
#427500
b101010111 !
b101010110 !
06
19
17
1+
#428750
b101010111 !
16
1;
0:
07
0+
0*
1>
1)
#430000
b101011111 !
b101011011 !
b101011001 !
b101011000 !
06
09
0=
1?
0;
1B
0A
0>
17
1+
0)
0(
1"
0B
1A
1>
1)
1(
0"
#431250
b101011001 !
16
1:
07
0+
1*
#432500
b101011011 !
b101011010 !
06
19
17
1+
#433750
b101011011 !
16
1;
0:
07
0+
0*
1B
0A
0>
0)
0(
1"
#435000
b101011111 !
b101011101 !
b101011100 !
06
09
1=
0;
1>
17
1+
1)
0>
0)
#436250
b101011101 !
16
1:
07
0+
1*
#437500
b101011111 !
b101011110 !
06
19
17
1+
#438750
b101011111 !
16
1;
0:
07
0+
0*
1>
1)
#440000
b101111111 !
b101101111 !
b101100111 !
b101100011 !
b101100001 !
b101100000 !
06
09
0=
0?
04
18
0;
1:
0B
1A
0>
0)
1(
0"
1*
0A
1>
1)
0(
#441250
b101100001 !
16
17
1+
#442500
b101100011 !
b101100010 !
06
19
1;
0:
07
0+
0*
1A
0>
0)
1(
#443750
b101100011 !
16
17
1+
#445000
b101100111 !
b101100101 !
b101100100 !
06
09
1=
0;
1>
1:
07
0+
1*
1)
0>
0)
#446250
b101100101 !
16
17
1+
#447500
b101100111 !
b101100110 !
06
19
1;
0:
07
0+
0*
1>
1)
#448750
b101100111 !
16
17
1+
#450000
b101101111 !
b101101011 !
b101101001 !
b101101000 !
06
09
0=
1?
0;
1B
0A
0>
1:
07
0+
1*
0)
0(
1"
0B
1A
1>
1)
1(
0"
#451250
b101101001 !
16
17
1+
#452500
b101101011 !
b101101010 !
06
19
1;
0:
07
0+
0*
1B
0A
0>
0)
0(
1"
#453750
b101101011 !
16
17
1+
#455000
b101101111 !
b101101101 !
b101101100 !
06
09
1=
0;
1>
1:
07
0+
1*
1)
0>
0)
#456250
b101101101 !
16
17
1+
#457500
b101101111 !
b101101110 !
06
19
1;
0:
07
0+
0*
1>
1)
#458750
b101101111 !
16
17
1+
#460000
b101111111 !
b101110111 !
b101110011 !
b101110001 !
b101110000 !
06
09
0=
0?
14
0;
1:
0B
1A
0>
0)
1(
0"
1*
0A
1>
1)
0(
#461250
b101110001 !
16
1;
0:
07
0+
0*
1A
0>
0)
1(
#462500
b101110011 !
b101110010 !
06
19
17
1+
#463750
b101110011 !
16
1:
07
0+
1*
#465000
b101110111 !
b101110101 !
b101110100 !
06
09
1=
0;
1>
17
1+
1)
0>
0)
#466250
b101110101 !
16
1;
0:
07
0+
0*
1>
1)
#467500
b101110111 !
b101110110 !
06
19
17
1+
